<svg width="28" height="28" viewBox="0 0 28 28" fill="none" xmlns="http://www.w3.org/2000/svg">
<path d="M27.9478 13.1297C27.5068 5.831 21.4693 0.0466667 14.0703 0H13.9047C11.2913 0.0186667 8.84601 0.746667 6.75884 2.01133C4.83 3.17781 3.2105 4.79171 2.03734 6.7165C0.547347 9.1611 -0.154077 12.0051 0.0283437 14.8622C0.163945 17.1295 0.854209 19.3289 2.03851 21.2672C3.20518 23.1898 4.81984 24.8022 6.73318 25.9723C8.89465 27.2679 11.3637 27.9608 13.8837 27.979H14.0937C21.4938 27.9288 27.5068 22.1573 27.9642 14.8657C27.9805 14.5857 27.9992 14.2882 27.9992 14.0093C27.9992 13.7305 27.9992 13.4318 27.9805 13.153L27.949 13.1273L27.9478 13.1297ZM14.0003 18.2397V22.7068C14.1123 25.4368 13.3353 25.8918 12.402 25.9338C12.3623 25.9338 12.325 25.9373 12.2853 25.9385C9.126 25.4862 6.27436 23.8011 4.35411 21.2519C2.43386 18.7026 1.6013 15.4966 2.03851 12.3352C2.39735 9.74242 3.58942 7.33663 5.43498 5.48055C7.28053 3.62447 9.67951 2.41874 12.2702 2.04517L12.4032 2.05683C13.3365 2.107 14.1123 2.5585 14.0015 5.2815V9.7475C13.9898 11.5827 15.0457 13.3315 16.168 13.9942C15.0457 14.6475 13.9887 16.1805 14.0003 18.2327V18.2397Z" fill="white"/>
</svg>
